module gitlab.com/thi-sensor-fusion/ground-control

go 1.17

require (
	github.com/gorilla/mux v1.8.0
	github.com/gorilla/websocket v1.5.0
	github.com/sirupsen/logrus v1.8.1
)

require (
	github.com/stretchr/testify v1.7.1 // indirect
	golang.org/x/sys v0.0.0-20220513210249-45d2b4557a2a // indirect
)
